<?xml version="1.0" encoding="UTF-8" standalone="no"?>
<svg
   xmlns:dc="http://purl.org/dc/elements/1.1/"
   xmlns:cc="http://creativecommons.org/ns#"
   xmlns:rdf="http://www.w3.org/1999/02/22-rdf-syntax-ns#"
   xmlns:svg="http://www.w3.org/2000/svg"
   xmlns="http://www.w3.org/2000/svg"
   xmlns:sodipodi="http://sodipodi.sourceforge.net/DTD/sodipodi-0.dtd"
   xmlns:inkscape="http://www.inkscape.org/namespaces/inkscape"
   style="height: 512px; width: 512px;"
   viewBox="0 0 512 512"
   version="1.1"
   id="svg8"
   sodipodi:docname="brick-wall-eye-right.svg"
   inkscape:version="0.92.4 (5da689c313, 2019-01-14)">
  <metadata
     id="metadata14">
    <rdf:RDF>
      <cc:Work
         rdf:about="">
        <dc:format>image/svg+xml</dc:format>
        <dc:type
           rdf:resource="http://purl.org/dc/dcmitype/StillImage" />
        <dc:title />
      </cc:Work>
    </rdf:RDF>
  </metadata>
  <defs
     id="defs12" />
  <sodipodi:namedview
     pagecolor="#ffffff"
     bordercolor="#666666"
     borderopacity="1"
     objecttolerance="10"
     gridtolerance="10"
     guidetolerance="10"
     inkscape:pageopacity="0"
     inkscape:pageshadow="2"
     inkscape:window-width="960"
     inkscape:window-height="1017"
     id="namedview10"
     showgrid="false"
     inkscape:zoom="0.4609375"
     inkscape:cx="256"
     inkscape:cy="603.11864"
     inkscape:window-x="-8"
     inkscape:window-y="-8"
     inkscape:window-maximized="0"
     inkscape:current-layer="svg8" />
  <path
     d="M0 0h512v512H0z"
     fill="#ffffff"
     fill-opacity="1"
     id="path2" />
  <g
     class=""
     style="touch-action: none;"
     transform="translate(0,0)"
     id="g6">
    <path
       d="M494 18.02l-101 .103V119h101zm-119 .12l-238 .247V119h238zm-256 .266L18 18.51V119h101zM18 137v110h229V137zm247 0v110h229V137zM18 265v110h101V265zm119 0v110h238V265zm256 0v110h101V265zM18 393v100.98l229-.236V393zm247 0v100.727l229-.237V393z"
       fill="#ffffff"
       fill-opacity="1"
       stroke="#bbbbbb"
       stroke-opacity="1"
       stroke-width="8"
       id="path4" />
  </g>
  <path
     inkscape:connector-curvature="0"
     style="fill:#ffffff;fill-opacity:1"
     d="M 520.67797,-692.0678 H 1032.678 v 512 H 520.67797 Z"
     id="path2-6" />
  <path
     style="fill:#000000;fill-opacity:1"
     inkscape:connector-curvature="0"
     id="path4-2"
     d="m 238,160 c -28,0 -60.378,17.102 -90.992,37.512 -30.615,20.41 -58.84,44.594 -75.37,61.125 L 65.27,265 l 6.367,6.363 c 16.53,16.53 44.756,40.716 75.37,61.125 C 177.623,352.898 210,370 238,370 h 3.73 l 2.633,-2.637 c 8.644,-8.643 15.787,-18.62 21.49,-29.47 -20.47,-1.078 -36.916,-10.11 -47.767,-23.13 C 206.512,300.872 201,282.874 201,265 c 0,-17.875 5.512,-35.873 17.086,-49.762 10.85,-13.02 27.297,-22.053 47.768,-23.13 -5.704,-10.85 -12.847,-20.828 -21.49,-29.47 L 241.728,160 Z m 31.40381,49.77513 C 259.05381,198.52513 240.34,216.65 231.914,226.762 223.488,236.872 219,250.875 219,265 c 0,14.125 4.488,28.127 12.914,38.238 8.426,10.11 26.71683,30.19711 38.086,16.762 11.97308,-16.25507 16.55756,-27.99859 17.79773,-55.18934 -0.2043,-26.92595 -5.83483,-39.51471 -18.39392,-55.03553 z M 446,217 v 32 h -96 v 32 h 96 v 32 l 48,-48 z"
     sodipodi:nodetypes="scccccsccccsccccsccscccccccccccc" />
  <ellipse
     style="fill:#ffffff"
     id="path19"
     cx="269.45917"
     cy="251.22621"
     rx="11.313708"
     ry="18.915106" />
</svg>
