<?xml version="1.0" encoding="UTF-8" standalone="no"?>
<svg
   xmlns:dc="http://purl.org/dc/elements/1.1/"
   xmlns:cc="http://creativecommons.org/ns#"
   xmlns:rdf="http://www.w3.org/1999/02/22-rdf-syntax-ns#"
   xmlns:svg="http://www.w3.org/2000/svg"
   xmlns="http://www.w3.org/2000/svg"
   xmlns:sodipodi="http://sodipodi.sourceforge.net/DTD/sodipodi-0.dtd"
   xmlns:inkscape="http://www.inkscape.org/namespaces/inkscape"
   style="height: 512px; width: 512px;"
   viewBox="0 0 512 512"
   version="1.1"
   id="svg8"
   sodipodi:docname="look-at.svg"
   inkscape:version="0.92.4 (5da689c313, 2019-01-14)">
  <metadata
     id="metadata14">
    <rdf:RDF>
      <cc:Work
         rdf:about="">
        <dc:format>image/svg+xml</dc:format>
        <dc:type
           rdf:resource="http://purl.org/dc/dcmitype/StillImage" />
      </cc:Work>
    </rdf:RDF>
  </metadata>
  <defs
     id="defs12" />
  <sodipodi:namedview
     pagecolor="#ffffff"
     bordercolor="#666666"
     borderopacity="1"
     objecttolerance="10"
     gridtolerance="10"
     guidetolerance="10"
     inkscape:pageopacity="0"
     inkscape:pageshadow="2"
     inkscape:window-width="1920"
     inkscape:window-height="1017"
     id="namedview10"
     showgrid="false"
     inkscape:zoom="1.4142136"
     inkscape:cx="176.34134"
     inkscape:cy="154.86453"
     inkscape:window-x="-8"
     inkscape:window-y="-8"
     inkscape:window-maximized="1"
     inkscape:current-layer="svg8" />
  <path
     d="M0 0h512v512H0z"
     fill="#ffffff"
     fill-opacity="1"
     id="path2" />
  <path
     style="fill:#000000;fill-opacity:1"
     inkscape:connector-curvature="0"
     id="path4"
     d="m 211.18198,157.36396 c -28,0 -60.378,17.102 -90.992,37.512 -30.614999,20.41 -58.839999,44.594 -75.369999,61.125 l -6.368,6.363 6.367,6.363 c 16.53,16.53 44.756,40.716 75.369999,61.125 30.616,20.41 62.993,37.512 90.993,37.512 h 3.73 l 2.633,-2.637 c 8.644,-8.643 15.787,-18.62 21.49,-29.47 -20.47,-1.078 -36.916,-10.11 -47.767,-23.13 -11.574,-13.891 -17.086,-31.889 -17.086,-49.763 0,-17.875 5.512,-35.873 17.086,-49.762 10.85,-13.02 27.297,-22.053 47.768,-23.13 -5.704,-10.85 -12.847,-20.828 -21.49,-29.47 l -2.636,-2.638 z m 31.40381,49.77513 c -10.35,-11.25 -29.06381,6.87487 -37.48981,16.98687 -8.426,10.11 -12.914,24.113 -12.914,38.238 0,14.125 4.488,28.127 12.914,38.238 8.426,10.11 26.71683,30.19711 38.086,16.762 11.97308,-16.25507 16.55756,-27.99859 17.79773,-55.18934 -0.2043,-26.92595 -5.83483,-39.51471 -18.39392,-55.03553 z m 176.59619,7.22487 v 32 h -96 v 32 h 96 v 32 l 48,-48 z"
     sodipodi:nodetypes="scccccsccccsccccsccscccccccccccc" />
  <ellipse
     style="fill:#ffffff"
     id="path19"
     cx="242.64117"
     cy="248.59016"
     rx="11.313708"
     ry="18.915106" />
</svg>
