{
  "grid": [
    [
      {
        "effect": "",
        "digit": "",
        "type": "none"
      },
      {
        "effect": "",
        "digit": "",
        "type": "none"
      },
      {
        "effect": "",
        "digit": 1,
        "type": "archer-down"
      },
      {
        "effect": "",
        "digit": 1,
        "type": "knight"
      },
      {
        "effect": "",
        "digit": "",
        "type": "none"
      },
      {
        "effect": "",
        "digit": 2,
        "type": "knight"
      },
      {
        "effect": "",
        "digit": "",
        "type": "none"
      },
      {
        "type": "knight",
        "digit": 1
      },
      {
        "type": "none",
        "digit": ""
      },
      {
        "type": "knight",
        "digit": 2
      },
      {
        "type": "archer-down",
        "digit": 1
      },
      {
        "type": "none",
        "digit": ""
      },
      {
        "type": "none",
        "digit": ""
      }
    ],
    [
      {
        "effect": "",
        "digit": "",
        "type": "none"
      },
      {
        "effect": "",
        "digit": "",
        "type": "none"
      },
      {
        "effect": "",
        "digit": "",
        "type": "empty"
      },
      {
        "effect": "",
        "digit": "",
        "type": "empty"
      },
      {
        "effect": "",
        "digit": "",
        "type": "empty"
      },
      {
        "effect": "",
        "digit": "",
        "type": "empty"
      },
      {
        "effect": "",
        "digit": "",
        "type": "empty"
      },
      {
        "type": "empty",
        "digit": ""
      },
      {
        "type": "empty",
        "digit": ""
      },
      {
        "type": "empty",
        "digit": ""
      },
      {
        "type": "empty",
        "digit": ""
      },
      {
        "type": "none",
        "digit": ""
      },
      {
        "type": "none",
        "digit": ""
      }
    ],
    [
      {
        "effect": "",
        "digit": 0,
        "type": "archer-right"
      },
      {
        "effect": "",
        "digit": "",
        "type": "empty"
      },
      {
        "effect": "",
        "digit": "",
        "type": "empty"
      },
      {
        "effect": "",
        "digit": "",
        "type": "empty"
      },
      {
        "effect": "",
        "digit": "",
        "type": "empty"
      },
      {
        "effect": "",
        "digit": "",
        "type": "empty"
      },
      {
        "effect": "",
        "digit": 4,
        "type": "knight"
      },
      {
        "type": "empty",
        "digit": ""
      },
      {
        "type": "empty",
        "digit": ""
      },
      {
        "type": "empty",
        "digit": ""
      },
      {
        "type": "empty",
        "digit": ""
      },
      {
        "type": "empty",
        "digit": ""
      },
      {
        "type": "archer-left",
        "digit": 0
      }
    ],
    [
      {
        "effect": "",
        "digit": "",
        "type": "none"
      },
      {
        "effect": "",
        "digit": 3,
        "type": "archer-right"
      },
      {
        "effect": "",
        "digit": "",
        "type": "empty"
      },
      {
        "effect": "",
        "digit": "",
        "type": "empty"
      },
      {
        "effect": "",
        "digit": "",
        "type": "empty"
      },
      {
        "effect": "",
        "digit": "",
        "type": "empty"
      },
      {
        "effect": "",
        "digit": "",
        "type": "none"
      },
      {
        "type": "empty",
        "digit": ""
      },
      {
        "type": "empty",
        "digit": ""
      },
      {
        "type": "empty",
        "digit": ""
      },
      {
        "type": "empty",
        "digit": ""
      },
      {
        "type": "archer-left",
        "digit": 3
      },
      {
        "type": "none",
        "digit": ""
      }
    ],
    [
      {
        "effect": "",
        "digit": "",
        "type": "none"
      },
      {
        "effect": "",
        "digit": "",
        "type": "none"
      },
      {
        "effect": "",
        "digit": "",
        "type": "empty"
      },
      {
        "effect": "",
        "digit": "",
        "type": "empty"
      },
      {
        "effect": "",
        "digit": 3,
        "type": "knight"
      },
      {
        "effect": "",
        "digit": "",
        "type": "none"
      },
      {
        "effect": "",
        "digit": "",
        "type": "none"
      },
      {
        "type": "none",
        "digit": ""
      },
      {
        "type": "knight",
        "digit": 3
      },
      {
        "type": "empty",
        "digit": ""
      },
      {
        "type": "empty",
        "digit": ""
      },
      {
        "type": "none",
        "digit": ""
      },
      {
        "type": "none",
        "digit": ""
      }
    ],
    [
      {
        "type": "none",
        "digit": ""
      },
      {
        "type": "none",
        "digit": ""
      },
      {
        "type": "knight",
        "digit": 1
      },
      {
        "type": "empty",
        "digit": ""
      },
      {
        "type": "none",
        "digit": ""
      },
      {
        "type": "none",
        "digit": ""
      },
      {
        "type": "none",
        "digit": ""
      },
      {
        "type": "none",
        "digit": ""
      },
      {
        "type": "none",
        "digit": ""
      },
      {
        "type": "empty",
        "digit": ""
      },
      {
        "type": "knight",
        "digit": 1
      },
      {
        "type": "none",
        "digit": ""
      },
      {
        "type": "none",
        "digit": ""
      }
    ],
    [
      {
        "type": "none",
        "digit": ""
      },
      {
        "type": "none",
        "digit": ""
      },
      {
        "type": "none",
        "digit": ""
      },
      {
        "type": "empty",
        "digit": ""
      },
      {
        "type": "empty",
        "digit": ""
      },
      {
        "type": "none",
        "digit": ""
      },
      {
        "type": "none",
        "digit": ""
      },
      {
        "type": "none",
        "digit": ""
      },
      {
        "type": "empty",
        "digit": ""
      },
      {
        "type": "empty",
        "digit": ""
      },
      {
        "type": "none",
        "digit": ""
      },
      {
        "type": "none",
        "digit": ""
      },
      {
        "type": "none",
        "digit": ""
      }
    ],
    [
      {
        "type": "none",
        "digit": ""
      },
      {
        "type": "none",
        "digit": ""
      },
      {
        "type": "none",
        "digit": ""
      },
      {
        "type": "knight",
        "digit": 1
      },
      {
        "type": "empty",
        "digit": ""
      },
      {
        "type": "knight",
        "digit": 1
      },
      {
        "type": "none",
        "digit": ""
      },
      {
        "type": "knight",
        "digit": 1
      },
      {
        "type": "empty",
        "digit": ""
      },
      {
        "type": "knight",
        "digit": 1
      },
      {
        "type": "none",
        "digit": ""
      },
      {
        "type": "none",
        "digit": ""
      },
      {
        "type": "none",
        "digit": ""
      }
    ],
    [
      {
        "type": "none",
        "digit": ""
      },
      {
        "type": "none",
        "digit": ""
      },
      {
        "type": "none",
        "digit": ""
      },
      {
        "type": "none",
        "digit": ""
      },
      {
        "type": "empty",
        "digit": ""
      },
      {
        "type": "empty",
        "digit": ""
      },
      {
        "type": "empty",
        "digit": ""
      },
      {
        "type": "empty",
        "digit": ""
      },
      {
        "type": "empty",
        "digit": ""
      },
      {
        "type": "none",
        "digit": ""
      },
      {
        "type": "none",
        "digit": ""
      },
      {
        "type": "none",
        "digit": ""
      },
      {
        "type": "none",
        "digit": ""
      }
    ],
    [
      {
        "type": "none",
        "digit": ""
      },
      {
        "type": "none",
        "digit": ""
      },
      {
        "type": "none",
        "digit": ""
      },
      {
        "type": "none",
        "digit": ""
      },
      {
        "type": "none",
        "digit": ""
      },
      {
        "type": "none",
        "digit": ""
      },
      {
        "type": "knight",
        "digit": 2
      },
      {
        "type": "none",
        "digit": ""
      },
      {
        "type": "none",
        "digit": ""
      },
      {
        "type": "none",
        "digit": ""
      },
      {
        "type": "none",
        "digit": ""
      },
      {
        "type": "none",
        "digit": ""
      },
      {
        "type": "none",
        "digit": ""
      }
    ]
  ],
  "name": "Cavern ambush",
  "lastUpdate": "2019-12-19T18:42:08.930Z"
}