{
  "grid": [
    [
      {
        "effect": "",
        "digit": "",
        "type": "none"
      },
      {
        "effect": "",
        "digit": "",
        "type": "none"
      },
      {
        "effect": "",
        "digit": "",
        "type": "none"
      },
      {
        "effect": "",
        "digit": "",
        "type": "none"
      },
      {
        "effect": "",
        "digit": "",
        "type": "crystal"
      },
      {
        "effect": "",
        "digit": "",
        "type": "none"
      },
      {
        "effect": "",
        "digit": "",
        "type": "none"
      },
      {
        "type": "none",
        "digit": ""
      },
      {
        "type": "none",
        "digit": ""
      }
    ],
    [
      {
        "effect": "",
        "digit": "",
        "type": "none"
      },
      {
        "effect": "",
        "digit": "",
        "type": "none"
      },
      {
        "effect": "",
        "digit": "",
        "type": "none"
      },
      {
        "effect": "",
        "digit": "",
        "type": "none"
      },
      {
        "effect": "",
        "digit": "",
        "type": "empty"
      },
      {
        "effect": "",
        "digit": "",
        "type": "none"
      },
      {
        "effect": "",
        "digit": "",
        "type": "none"
      },
      {
        "type": "none",
        "digit": ""
      },
      {
        "type": "none",
        "digit": ""
      }
    ],
    [
      {
        "effect": "",
        "digit": "",
        "type": "empty"
      },
      {
        "effect": "",
        "digit": "",
        "type": "empty"
      },
      {
        "effect": "",
        "digit": "",
        "type": "empty"
      },
      {
        "effect": "",
        "digit": "",
        "type": "empty"
      },
      {
        "effect": "",
        "digit": "",
        "type": "empty"
      },
      {
        "effect": "",
        "digit": "",
        "type": "empty"
      },
      {
        "effect": "",
        "digit": "",
        "type": "empty"
      },
      {
        "type": "empty",
        "digit": ""
      },
      {
        "type": "empty",
        "digit": ""
      }
    ],
    [
      {
        "effect": "",
        "digit": "",
        "type": "empty"
      },
      {
        "effect": "",
        "digit": 4,
        "type": "knight"
      },
      {
        "effect": "",
        "digit": 6,
        "type": "knight"
      },
      {
        "effect": "",
        "digit": 4,
        "type": "knight"
      },
      {
        "effect": "",
        "digit": "",
        "type": "empty"
      },
      {
        "effect": "",
        "digit": 4,
        "type": "knight"
      },
      {
        "effect": "",
        "digit": 6,
        "type": "knight"
      },
      {
        "type": "knight",
        "digit": 4
      },
      {
        "type": "empty",
        "digit": ""
      }
    ],
    [
      {
        "effect": "",
        "digit": "",
        "type": "empty"
      },
      {
        "effect": "",
        "digit": "",
        "type": "empty"
      },
      {
        "effect": "",
        "digit": "",
        "type": "empty"
      },
      {
        "effect": "",
        "digit": "",
        "type": "empty"
      },
      {
        "effect": "",
        "digit": "",
        "type": "empty"
      },
      {
        "effect": "",
        "digit": "",
        "type": "empty"
      },
      {
        "effect": "",
        "digit": "",
        "type": "empty"
      },
      {
        "type": "empty",
        "digit": ""
      },
      {
        "type": "empty",
        "digit": ""
      }
    ],
    [
      {
        "type": "none",
        "digit": ""
      },
      {
        "type": "empty",
        "digit": ""
      },
      {
        "type": "knight",
        "digit": 5
      },
      {
        "type": "empty",
        "digit": ""
      },
      {
        "type": "empty",
        "digit": ""
      },
      {
        "type": "empty",
        "digit": ""
      },
      {
        "type": "knight",
        "digit": 5
      },
      {
        "type": "empty",
        "digit": ""
      },
      {
        "type": "none",
        "digit": ""
      }
    ],
    [
      {
        "type": "none",
        "digit": ""
      },
      {
        "type": "empty",
        "digit": ""
      },
      {
        "type": "knight",
        "digit": 2
      },
      {
        "type": "empty",
        "digit": ""
      },
      {
        "type": "empty",
        "digit": ""
      },
      {
        "type": "empty",
        "digit": ""
      },
      {
        "type": "knight",
        "digit": 2
      },
      {
        "type": "empty",
        "digit": ""
      },
      {
        "type": "none",
        "digit": ""
      }
    ],
    [
      {
        "type": "none",
        "digit": ""
      },
      {
        "type": "empty",
        "digit": ""
      },
      {
        "type": "knight",
        "digit": 5
      },
      {
        "type": "empty",
        "digit": ""
      },
      {
        "type": "empty",
        "digit": ""
      },
      {
        "type": "empty",
        "digit": ""
      },
      {
        "type": "knight",
        "digit": 5
      },
      {
        "type": "empty",
        "digit": ""
      },
      {
        "type": "none",
        "digit": ""
      }
    ],
    [
      {
        "type": "empty",
        "digit": ""
      },
      {
        "type": "empty",
        "digit": ""
      },
      {
        "type": "empty",
        "digit": ""
      },
      {
        "type": "empty",
        "digit": ""
      },
      {
        "type": "empty",
        "digit": ""
      },
      {
        "type": "empty",
        "digit": ""
      },
      {
        "type": "empty",
        "digit": ""
      },
      {
        "type": "empty",
        "digit": ""
      },
      {
        "type": "empty",
        "digit": ""
      }
    ],
    [
      {
        "type": "empty",
        "digit": ""
      },
      {
        "type": "knight",
        "digit": 4
      },
      {
        "type": "knight",
        "digit": 6
      },
      {
        "type": "knight",
        "digit": 4
      },
      {
        "type": "empty",
        "digit": ""
      },
      {
        "type": "knight",
        "digit": 4
      },
      {
        "type": "knight",
        "digit": 6
      },
      {
        "type": "knight",
        "digit": 4
      },
      {
        "type": "empty",
        "digit": ""
      }
    ],
    [
      {
        "type": "empty",
        "digit": ""
      },
      {
        "type": "empty",
        "digit": ""
      },
      {
        "type": "empty",
        "digit": ""
      },
      {
        "type": "empty",
        "digit": ""
      },
      {
        "type": "empty",
        "digit": ""
      },
      {
        "type": "empty",
        "digit": ""
      },
      {
        "type": "empty",
        "digit": ""
      },
      {
        "type": "empty",
        "digit": ""
      },
      {
        "type": "empty",
        "digit": ""
      }
    ],
    [
      {
        "type": "none",
        "digit": ""
      },
      {
        "type": "none",
        "digit": ""
      },
      {
        "type": "none",
        "digit": ""
      },
      {
        "type": "none",
        "digit": ""
      },
      {
        "type": "archer-up",
        "digit": 4
      },
      {
        "type": "none",
        "digit": ""
      },
      {
        "type": "none",
        "digit": ""
      },
      {
        "type": "none",
        "digit": ""
      },
      {
        "type": "none",
        "digit": ""
      }
    ]
  ],
  "name": "Crystal room",
  "lastUpdate": "2019-12-16T16:29:49.670Z"
}